{
  "flag" : "success",
  "data" : {
    "content" : [ {
      "metaDefinedName" : "Testorder",
      "namespace" : "iuap_product_boot",
      "status" : null,
      "changedPropertyNames" : null,
      "id" : "74b9fd5c-4700-4ef8-8d75-5d1c2b9a3e0d",
      "code" : "xxxx",
      "billdate" : 1470153600000,
      "fromtime" : 1470153600000,
      "totime" : 1471968000000,
      "type" : "11",
      "budget" : 888,
      "information" : "33337",
      "memo" : "3333",
      "content" : "3333",
      "creatorid" : null,
      "auditorid" : null,
      "dr" : 0,
      "ts" : 1471394064000
    }, {
      "metaDefinedName" : "Testorder",
      "namespace" : "iuap_product_boot",
      "status" : null,
      "changedPropertyNames" : null,
      "id" : "1ba6deb8-e1b2-431d-a27d-d6d7694b47bd",
      "code" : "100001",
      "billdate" : 1470153600000,
      "fromtime" : 1470153600000,
      "totime" : 1470153600000,
      "type" : "12",
      "budget" : 111,
      "information" : "111",
      "memo" : "11",
      "content" : "111",
      "creatorid" : null,
      "auditorid" : null,
      "dr" : 0,
      "ts" : 1470185696000
    }, {
      "metaDefinedName" : "Testorder",
      "namespace" : "iuap_product_boot",
      "status" : null,
      "changedPropertyNames" : null,
      "id" : "4b527016-bb2c-4be8-8e88-f2b41f60321d",
      "code" : "vv",
      "billdate" : 1469808000000,
      "fromtime" : 1469808000000,
      "totime" : 1469808000000,
      "type" : "12",
      "budget" : 22222,
      "information" : "vvv",
      "memo" : "vvv",
      "content" : "vvv",
      "creatorid" : null,
      "auditorid" : null,
      "dr" : 0,
      "ts" : 1469848563000
    }, {
      "metaDefinedName" : "Testorder",
      "namespace" : "iuap_product_boot",
      "status" : null,
      "changedPropertyNames" : null,
      "id" : "6bd914f6-de83-47d7-97be-4335d8a884db",
      "code" : "yyyy",
      "billdate" : 1469808000000,
      "fromtime" : 1469721600000,
      "totime" : 1469808000000,
      "type" : "12",
      "budget" : 77777,
      "information" : "777",
      "memo" : "777",
      "content" : "777",
      "creatorid" : null,
      "auditorid" : null,
      "dr" : 0,
      "ts" : 1469847129000
    }, {
      "metaDefinedName" : "Testorder",
      "namespace" : "iuap_product_boot",
      "status" : null,
      "changedPropertyNames" : null,
      "id" : "157ffbd8-e007-439f-8fff-897d34f94b8c",
      "code" : "uuuu",
      "billdate" : 1469635200000,
      "fromtime" : 1469635200000,
      "totime" : 1469635200000,
      "type" : "12",
      "budget" : 999,
      "information" : "999",
      "memo" : "999",
      "content" : "999",
      "creatorid" : null,
      "auditorid" : null,
      "dr" : 0,
      "ts" : 1469667749000
    } ],
    "last" : false,
    "totalElements" : 22,
    "totalPages" : 5,
    "size" : 5,
    "number" : 0,
    "sort" : [ {
      "direction" : "DESC",
      "property" : "ts",
      "ignoreCase" : false,
      "nullHandling" : "NATIVE",
      "ascending" : false
    } ],
    "numberOfElements" : 5,
    "first" : true
  },
  "msg" : "查询数据成功!"
}
